{
    "totalCount": 8,
    "pageCount": 4,
    "currentPage": 1,
    "pageSize": 2,
    "offset": 0,
    "result": [
        {
            "createdBy": "admin",
            "createdTime": {
                "epochSecond": 1487042400,
                "nano": 418000000
            },
            "updatedBy": "admin",
            "updatedTime": {
                "epochSecond": 1487042400,
                "nano": 418000000
            },
            "id": "1",
            "operator": "admin",
            "module": "login",
            "resource": "xxx.com",
            "operation": "login",
            "message": "hello",
            "remark": "mark",
            "status": null,
            "dolarSystem": null
        },
        {
            "createdBy": "admin",
            "createdTime": {
                "epochSecond": 1487042400,
                "nano": 419000000
            },
            "updatedBy": "admin",
            "updatedTime": {
                "epochSecond": 1487042400,
                "nano": 419000000
            },
            "id": "4",
            "operator": "admin",
            "module": "logout",
            "resource": "aaa.com",
            "operation": "login",
            "message": "hello",
            "remark": "mark",
            "status": null,
            "dolarSystem": null
        }
    ]
}